…
``` r
# Primer insigth: en donde encontramos mas de 100 porciento, que es luego del 2003, se sugiere que las personas empezaron a suscribirse a más de una línea telefónica.
    
phones %>% 
    arrange(desc(suscripciones))
```

    ## # A tibble: 13,251 x 8
    ##    pais      code   year total_pop gdp_per_cap suscripciones continent type  
    ##    <chr>     <chr> <dbl>     <dbl>       <dbl>         <dbl> <chr>     <chr> 
    ##  1 Macao     MAC    2016        NA      97752.          322. Asia      Mobile
    ##  2 Macao     MAC    2015        NA     100445.          316. Asia      Mobile
    ##  3 Macao     MAC    2014        NA     130755.          315. Asia      Mobile
    ##  4 Macao     MAC    2013    578844     135319.          299. Asia      Mobile
    ##  5 Macao     MAC    2012    567441     124569.          287. Asia      Mobile
    ##  6 Hong Kong HKG    2017        NA      56055.          249. Asia      Mobile
    ##  7 Macao     MAC    2011    555731     116752.          246. Asia      Mobile
    ##  8 Hong Kong HKG    2016        NA      54413.          241. Asia      Mobile
    ##  9 Hong Kong HKG    2013   7274125      51732.          237. Asia      Mobile
    ## 10 Hong Kong HKG    2014        NA      52789.          236. Asia      Mobile
    ## # ... with 13,241 more rows
…
